[{
    "_id": "c-10",
    "_parentId": "b-10",
    "_type": "component",
    "_component": "text",
    "_classes": "",
    "_layout": "full",
    "title": "Radical shift to mobile",
    "displayTitle": "Radical shift to mobile",
    "body": "Today, people are spending more and more time on their mobile phones.  These devices are always by our side every second of the day and that has changed how we communicate, work, discover, learn, and make purchase decisions.",
    "instruction": "",
    "_pageLevelProgress": {
      "_isEnabled": true
    }
  },
  {
    "_id": "c-11",
    "_parentId": "b-10",
    "_type": "component",
    "_component": "graphic",
    "_classes": "",
    "_layout": "full",
    "title": "Mobile and Facebook usage stats",
    "displayTitle": "",
    "body": "",
    "instruction": "",
    "_graphic": {
      "alt": "alt text",
      "src": "course/en/images/01_digital_marketing_landscape/stats.png"
    },
    "_pageLevelProgress": {
      "_isEnabled": false
    }
  },
  {
    "_id": "c-12",
    "_parentId": "b-10",
    "_type": "component",
    "_component": "text",
    "_classes": "",
    "_layout": "full",
    "title": "Implications to consumer behavior",
    "displayTitle": "",
    "body": "The availability and accessibility of information online and via mobile has changed our purchase behavior and expectations of business interactions. It influences the way we purchase new products and services — whether it's acquiring technology products for our business, buying a new pair of shoes, or booking a hotel for a family vacation. In today’s market, people research, read product reviews, compare prices, and purchase on their mobile devices.",
    "instruction": "",
    "_pageLevelProgress": {
      "_isEnabled": true
    }
  },
  {
    "_id": "c-20",
    "_parentId": "b-20",
    "_type": "component",
    "_component": "text",
    "_classes": "",
    "_layout": "full",
    "title": "What you’ll learn in this course",
    "displayTitle": "What you’ll learn in this course",
    "body": "This course is designed to help you:<br><br><ul><li>Understand how business decision makers use digital and mobile in their path to purchase.</li><li>Find and reach the right people on Facebook with our powerful targeting solutions.</li><li>Learn how Facebook solutions can move your prospects and customers through the customer journey.</li><li>Measure the success of your campaigns.</li><li>See how other B2B marketers are achieving success.</li></ul>",
    "instruction": "",
    "_pageLevelProgress": {
      "_isEnabled": true
    }
  },
  {
    "_id": "c-32",
    "_parentId": "b-20",
    "_type": "component",
    "_component": "text",
    "_classes": "",
    "_layout": "full",
    "title": "",
    "displayTitle": "",
    "body": "<hr><cite><sup>1</sup>“How mobile is overtaking desktop for global media consumption, in 5 charts,” Digiday, Jun 2016<br><sup>2</sup>“How Many Times Do You Unlock Your iPhone Per Day? Here's The Answer From Apple,” Tech Times, Apr 2016<br><sup>3</sup>Q1 Facebook Earnings, Apr 2016<br><sup>4</sup>Nielsen Mobile NetView, US, Aug 2016</cite>",
    "instruction": "",
    "_pageLevelProgress": {
      "_isEnabled": false
    }
  },
  {
    "_id": "c-90",
    "_parentId": "b-90",
    "_type": "component",
    "_component": "co-jump",
    "_classes": "color-test",
    "_preLinkBody": "Let’s take a look at some ",
    "_linkBody": "Insights on Business Decision Makers",
    "_postLinkBody": ".",
    "_link": "#/id/co-100",
    "_graphic": "adapt/css/assets/icon_nextPage.png",
    "_pageLevelProgress": {
      "_isEnabled": false
    }
  },


  {
    "_id": "c-100",
    "_parentId": "b-100",
    "_type": "component",
    "_component": "text",
    "_classes": "",
    "_layout": "full",
    "title": "How business decision makers use mobile",
    "displayTitle": "",
    "body": "Business decision makers are people too, with varied interests, who spend a lot of time on their mobile devices and in their Feeds throughout the day, every day.<br><br>Here are some insights to help you understand how business decision makers (BDMs) are using mobile and Facebook day-to-day.",
    "instruction": "",
    "_pageLevelProgress": {
      "_isEnabled": true
    }
  },
  {
    "_id": "c-101",
    "_parentId": "b-100",
    "_type": "component",
    "_component": "text",
    "_classes": "",
    "_layout": "left",
    "title": "",
    "displayTitle": "",
    "body": "<div style='text-align:center;font-size:40px;font-weight:bold;color:#000000;'><img src='course/en/images/03_audience_insights/usage1.png'><br>79%</div><br><div style='text-align:center;font-size:18px;color:#000000;'>of senior executives say Facebook<br>is where they are most likely to<br>engage with business content. <sup>1</sup></div>",
    "instruction": "",
    "_pageLevelProgress": {
      "_isEnabled": false
    }
  },
  {
    "_id": "c-102",
    "_parentId": "b-100",
    "_type": "component",
    "_component": "text",
    "_classes": "",
    "_layout": "right",
    "title": "",
    "displayTitle": "",
    "body": "<div style='text-align:center;font-size:18px;color:#000000;'><img src='course/en/images/03_audience_insights/usage2.png'><br>BDMs spend </div><br><div style='text-align:center;font-size:40px;font-weight:bold;color:#000000;'>40x</div><br><div style='text-align:center;font-size:18px;color:#000000;'>more time on Facebook vs. other<br>conventional B2B sites/platforms. <sup>2</sup></div>",
    "instruction": "",
    "_pageLevelProgress": {
      "_isEnabled": false
    }
  },
  {
    "_id": "c-111",
    "_parentId": "b-110",
    "_type": "component",
    "_component": "text",
    "_classes": "",
    "_layout": "full",
    "title": "",
    "displayTitle": "",
    "body": "<div style='text-align:center;font-size:40px;color:#000000;'><img src='course/en/images/03_audience_insights/news.png'><br><div style='text-align:center;font-size:18px;color:#000000;'><br>Behind Google Search, Facebook is the top source<br>of traffic to traditional “News and Business” sites such as<br>The New York Times, Wall Street Journal, and Forbes. <sup>3</sup></div>",
    "instruction": "",
    "_pageLevelProgress": {
      "_isEnabled": false
    }
  },
  {
    "_id": "c-120",
    "_parentId": "b-120",
    "_type": "component",
    "_component": "text",
    "_classes": "",
    "_layout": "full",
    "title":"Consuming business content on Facebook",
    "displayTitle":"Consuming business content on Facebook",
    "body":"Business decision makers spend 75% more time per day on Facebook than the average person.<sup>4</sup> They also consume and share more content on Facebook.<br><div style='text-align:center;font-size:40px;font-weight:bold;color:#000000;'><img src='course/en/images/03_audience_insights/consume_biz_content.png'><br>80%</div><br><div style='text-align:center;font-size:18px;color:#000000;'>of BDMs say they consume business content on Facebook. <sup>5</sup></div>",
    "instruction": "",
    "_pageLevelProgress": {
      "_isEnabled": false
    }
  },
  {
    "_id":"c-121",
    "_parentId":"b-120",
    "_type":"component",
    "_component":"threeColumn",
    "_classes":"",
    "_layout":"full",
    "title":"",
    "displayTitle":"",
    "body":"BDMs engage deeply with Facebook. Not only do BDMs use Facebook more often, but they engage with more business content, with particular preference for short- and long-form video.",
    "instruction":"",
    "_items": [
        {
            "_graphic": {
                "alt": "alt text",
                "src": "course/en/images/03_audience_insights/consume_product_info.png"
            },
            "text":"<div style='text-align:center;font-size:40px;font-weight:bold;color:#000000;'><br>1.34x</div><br><div style='text-align:center;font-size:18px;color:#000000;'>more likely to be consume product information. <sup>6</sup></div>",
            "fontSize":"4vmin",
            "lineHeight":"",
            "fontColor":"#ffffff"
        },
        {
            "_graphic": {
                "alt": "alt text",
                "src": "course/en/images/03_audience_insights/watch_product_demos.png"
            },
            "text":"<div style='text-align:center;font-size:40px;font-weight:bold;color:#000000;'><br>1.52x</div><br><div style='text-align:center;font-size:18px;color:#000000;'>more likely to be watch product demos. <sup>7</sup></div>",
            "fontSize":"4vmin",
            "lineHeight":"",
            "fontColor":"#ffffff"
        },
        {
            "_graphic": {
                "alt": "alt text",
                "src": "course/en/images/03_audience_insights/short_form_videos.png"
            },
            "text":"<div style='text-align:center;font-size:40px;font-weight:bold;color:#000000;'><br>1.75x</div><br><div style='text-align:center;font-size:18px;color:#000000;'>more likely to consume short video clips on Facebook than other platforms. <sup>8</sup></div>",
            "fontSize":"4vmin",
            "lineHeight":"",
            "fontColor":"#ffffff"
        }
    ]
  },
  {
    "_id": "c-122",
    "_parentId": "b-120",
    "_type": "component",
    "_component": "text",
    "_classes": "",
    "_layout": "full",
    "title":"",
    "displayTitle":"",
    "body":"<div style='text-align:center;font-size:18px;color:#000000;'><img src='course/en/images/03_audience_insights/share_biz_content.png'><br>They are also</div><br><div style='text-align:center;font-size:40px;font-weight:bold;color:#000000;'>1.28x</div><br><div style='text-align:center;font-size:18px;color:#000000;'>more likely to share business content. <sup>9</sup></div>",
    "instruction": "",
    "_pageLevelProgress": {
      "_isEnabled": false
    }
  },
  {
    "_id": "c-140",
    "_parentId": "b-140",
    "_type": "component",
    "_component": "text",
    "_classes": "",
    "_layout": "full",
    "title": "",
    "displayTitle": "",
    "body": "Today’s customer journey is fragmented across devices and channels.  In the next modules, we’ll look at how Facebook's solutions can help you reach the right audience across devices.<br><br><hr><cite><sup>1</sup>Grist, Nov 2016<br><sup>2</sup>ComScore, Oct 2016<br><sup>3</sup>ComScore, Source/Loss, Aug 2016<br><sup>4</sup>Facebook IQ Source: Facebook data, people ages 18+ in US, March-April 2017. The most current self-reported and inferred data were used.<br><sup>5,6,7,8,9</sup>Facebook IQ Source: B2B Study *Down to Business* by Ipsos, commissioned by Facebook, survey of 700 people aged 18+ in the US, Apr-May 2017, self-reporting to be business decision-makers or IT decision-makers. *Twitter, LinkedIn, business websites, news websites and tech websites.</cite>",
    "instruction": "",
    "_pageLevelProgress": {
      "_isEnabled": false
    }
  },
  {
    "_id": "c-190",
    "_parentId": "b-190",
    "_type": "component",
    "_component": "co-jump",
    "_classes": "color-test",
    "_preLinkBody": "Next, let’s take a look at ",
    "_linkBody": "How Facebook Can Help Your Business Succeed",
    "_postLinkBody": ".",
    "_link": "#/id/co-150",
    "_graphic": "adapt/css/assets/icon_nextPage.png",
    "_pageLevelProgress": {
      "_isEnabled": false
    }
  },


  {
    "_id": "c-200",
    "_parentId": "b-200",
    "_type": "component",
    "_component": "media",
    "_classes": "",
    "_layout": "full",
    "title": "",
    "displayTitle": "",
    "body": "",
    "instruction": "",
    "_setCompletionOn": "inview",
    "_useClosedCaptions": true,
    "_startLanguage": "en",
    "_media": {
      "width": "720",
      "height": "404",
      "mp4": "course/en/images/02_helping_you_succeed/b2b_sizzle_reel.mp4",
      "poster": "course/en/images/02_helping_you_succeed/sizzle_poster.png",
      "cc": [{
        "srclang": "en",
        "src": "course/en/video/b2b_sizzle_reel.srt"
      }]
    },
    "_playerOptions": {
      "poster": "",
      "showPosterWhenEnded": false,
      "defaultVideoWidth": 720,
      "defaultVideoHeight": 404,
      "videoWidth": -1,
      "videoHeight": -1,
      "defaultAudioWidth": 400,
      "defaultAudioHeight": 30,
      "defaultSeekBackwardInterval": "(media.duration * 0.05)",
      "defaultSeekForwardInterval": "(media.duration * 0.05)",
      "audioWidth": -1,
      "audioHeight": -1,
      "startVolume": 0.8,
      "loop": false,
      "autoPlay": true,
      "autoRewind": true,
      "enableAutosize": true,
      "alwaysShowHours": false,
      "showTimecodeFrameCount": false,
      "framesPerSecond": 25,
      "autosizeProgress": true,
      "alwaysShowControls": false,
      "hideVideoControlsOnLoad": false,
      "clickToPlayPause": true,
      "iPadUseNativeControls": false,
      "iPhoneUseNativeControls": false,
      "AndroidUseNativeControls": false,
      "features": ["playpause", "current", "progress", "duration", "tracks", "volume", "fullscreen"],
      "isVideo": true,
      "enableKeyboard": true,
      "pauseOtherPlayers": true,
      "startLanguage": "en",
      "tracksText": "mejs.i18n.t('Captions/Subtitles')",
      "hideCaptionsButtonWhenEmpty": true,
      "toggleCaptionsButtonWhenOnlyOne": false,
      "slidesSelector": ""
    },
    "_pageLevelProgress": {
      "_isEnabled": false
    }
  },
  {
    "_id": "c-210",
    "_parentId": "b-210",
    "_type": "component",
    "_component": "text",
    "_classes": "",
    "_layout": "full",
    "title": "The customer journey",
    "displayTitle": "",
    "body": "We think about the customer journey holistically and offer a variety of solutions to meet your specific business goals.  Our powerful marketing platform can connect the customer journey across devices from desktop to mobile, and measure the impact and performance of your campaigns.  Learn how to effectively achieve your business objectives through marketing on Facebook, Instagram, and Audience Network in our Blueprint courses.",
    "instruction": "",
    "_pageLevelProgress": {
      "_isEnabled": true
    }
  },
  {
    "_id": "c-211",
    "_parentId": "b-210",
    "_type": "component",
    "_component": "canvas-animation",
    "_classes": "",
    "_layout": "full",
    "title": "",
    "displayTitle": "",
    "animationName": "TestAnimation2",
    "animation": "course/en/animations/test/testAnimation2.js",
    "body": "<div id='TestAnimation2'></div>",
    "_resources": {
      "background": "course/en/images/01_digital_marketing_landscape/background.png",
      "leftImage": "course/en/images/02_helping_you_succeed/awareness.png",
      "centerImage": "course/en/images/02_helping_you_succeed/demand_generation.png",
      "rightImage": "course/en/images/02_helping_you_succeed/acquisition.png",
      "leftText": "Awareness",
      "centerText": "Demand Generation",
      "rightText": "Acquisition"
    },
    "instruction": "",
    "_pageLevelProgress": {
      "_isEnabled": false
    }
  },
  {
    "_id": "c-220",
    "_parentId": "b-220",
    "_type": "component",
    "_component": "text",
    "_classes": "",
    "_layout": "full",
    "title": "How your business can succeed in a mobile world",
    "displayTitle": "How your business can succeed in a mobile world",
    "body": "Mobile creates a massive opportunity to grow your business, and today, 84% of US B2B marketers say they use social media as a marketing tactic to acquire customers.<sup>1</sup>  Here are some considerations to help shape your strategy:<br><br><table class='table-style-1'><thead><th colspan='2'>Reach/Scale</th></thead><tbody><tr><td width='50%'>Drive business results at scale.</td><td width='50%'>On average, 1.9 billion people are visiting Facebook every day<sup>2</sup> and 500 million people are visiting Instagram every day.<sup>3</sup></td></tr></tbody><thead><th colspan='2'>Be where your customers are</th></thead><tbody><tr><td width='50%'>Business decision makers are people too, and you need to reach them where they’re spending time.</td><td width='50%'>Business decision makers are 2x more likely to be daily active users than other people on Facebook.<sup>4</sup><br><br>Additionally, 58% of business decision makers use Messenger at least once a day, and 40% of BDMs say they use it to message their co-workers.<sup>5</sup></td></tr></tbody><thead><th colspan='2'>Capture attention, stop thumbs</th></thead><tbody><tr><td width='50%'>Deliver relevant messaging to the right person at the right time.</td><td width='50%'>On Facebook and Instagram, you can reach your audience with thumb-stopping creative in a variety of different formats designed to meet your objectives throughout the funnel.</td></tr></tbody><thead><th colspan='2'>Understand your audience</th></thead><tbody><tr><td width='50%'>Leverage insights about your target audience to inform your strategy and develop more relevant creative.</td><td width='50%'>Use our Audience Insights tool to get deeper insights into  your target audience’s interests, behaviors and demographics.<br><br>Learn more in our <i>Audience Insights</i> Blueprint course.</td></tr></tbody><thead><th colspan='2'>Measure real business impact</th></thead><tbody><tr><td width='50%'>Measure the full path to purchase.</td><td width='50%'>Measure the impact of your campaigns with our people-based measurement solutions, including solutions that measure brand and sales outcomes.</td></tr></tbody></table><br><br>We'll do a deep dive on each of these solutions in later modules.",
    "instruction": "",
    "_pageLevelProgress": {
      "_isEnabled": true
    }
  },
  {
    "_id": "c-290",
    "_parentId": "b-290",
    "_type": "component",
    "_component": "text",
    "_classes": "",
    "_layout": "full",
    "title": "",
    "displayTitle": "",
    "body": "<hr><cite><sup>1</sup>“State of Pipeline Marketing 2016,” Bizible, Nov 2016<br><sup>2,3</sup>Q3 Facebook Earnings, Nov 2017<br><sup>4</sup>Facebook IQ Source: Facebook data, people ages 18+ in US, March-April 2017. The most current self-reported and inferred data were used.<br><sup>5</sup>Facebook IQ Source: B2B Study *Down to Business* by Ipsos, commissioned by Facebook, survey of 700 people aged 18+ in the US, Apr-May 2017, self-reporting to be business decision-makers or IT decision-makers.</cite>",
    "instruction": "",
    "_pageLevelProgress": {
      "_isEnabled": false
    }
  },
  {
    "_id": "c-291",
    "_parentId": "b-290",
    "_type": "component",
    "_component": "co-jump",
    "_classes": "color-test",
    "_preLinkBody": "Let's take a look at Facebook's ",
    "_linkBody": "Powerful Targeting",
    "_postLinkBody": ".",
    "_link": "#/id/co-200",
    "_graphic": "adapt/css/assets/icon_nextPage.png",
    "_pageLevelProgress": {
      "_isEnabled": false
    }
  },



  {
    "_id": "c-300",
    "_parentId": "b-300",
    "_type": "component",
    "_component": "text",
    "_classes": "",
    "_layout": "full",
    "title": "Personalized marketing at scale",
    "displayTitle": "Personalized marketing at scale",
    "body": "Ads with relevant messaging targeted at the right people can be highly effective in achieving your objectives.<br><br>Facebook's powerful targeting solutions enable you to target people based on:<br><br><ol><li>The information they share on Facebook (Core Audiences)</li><li>Your own first-party customer data, including CRM data or pixel data (Custom and Lookalike Audiences)</li></ol><br><br>On Facebook, you can utilize one or a combination of targeting options that meet your business goals.",
    "instruction": "",
    "_pageLevelProgress": {
      "_isEnabled": true
    }
  },
  {
    "_id": "c-310",
    "_parentId": "b-310",
    "_type": "component",
    "_component": "animate-message",
    "_classes": "",
    "_layout": "full",
    "title": "Core Audiences",
    "displayTitle": "",
    "body": "",
    "instruction": "",
    "titleAnimation": "transition.slideRightIn",
    "bodyAnimation": "transition.slideLeftIn",
    "backgroundColor": "#ffffff,#ffffff,#ffffff",
    "_spacing": "20px",
    "_pageLevelProgress": {
      "_isEnabled": true
    },
    "_items": [{
      "item_title": "",
      "body": "<table><tr><td width=25%><img src='course/en/images/04_powerful_targeting/core_audience.png'></td><td><b>CORE AUDIENCES</b><br><br>Data is pulled from information people share in their profiles and the behaviors they exhibit on our platform.<br><br>Core Audience uses native Facebook data. This allows you to target your ad to people based on interests, location, demographics, and behavior.  For example, you can target people who are interested in computer networking and security (interests) or people who work in IT and Technical fields (demographics).  You may also target people based on job titles, such as Hardware Engineer or IT Specialists.</td></tr></table>"
    }]
  },
  {
    "_id": "c-311",
    "_parentId": "b-310",
    "_type": "component",
    "_component": "animate-message",
    "_classes": "",
    "_layout": "full",
    "title": "Custom Audiences",
    "displayTitle": "",
    "body": "",
    "instruction": "",
    "titleAnimation": "transition.slideRightIn",
    "bodyAnimation": "transition.slideLeftIn",
    "backgroundColor": "#ffffff,#ffffff,#ffffff",
    "_spacing": "20px",
    "_pageLevelProgress": {
      "_isEnabled": true
    },
    "_items": [{
      "item_title": "",
      "body": "<table><tr><td width=25%><img src='course/en/images/04_powerful_targeting/custom_audiences.png'></td><td><b>CUSTOM AUDIENCES</b><br><br>Custom Audiences help you reach people across devices based on the data that you already have access to, such as your CRM and pixel data.<br><br>Advanced matching for Custom Audiences allow for real-time matching across multiple data types at once and may include: email, phone numbers, first name, last name, zip code, city, state, country, iOS IDFAs, Android Advertising IDs, and app user IDs.<br><br>You can use your CRM and pixel data to cross-sell or upsell to existing customers, or to those who have come to a site and haven't converted.  You can also create lookalike audiences of people who look like your best customers.<br><br><i>Note:</i>  To create Custom Audiences based on the actions people have taken on your website, you will need to use the Facebook pixel. To create Custom Audiences based on the actions people have taken within your mobile app, you will need to use the Facebook SDK and App Events. Keep in mind that your Custom Audiences must have at least 100 people in them.</td></tr></table>"
    }]
  },
  {
    "_id": "c-312",
    "_parentId": "b-310",
    "_type": "component",
    "_component": "animate-message",
    "_classes": "",
    "_layout": "full",
    "title": "Lookalike Audiences",
    "displayTitle": "",
    "body": "",
    "instruction": "",
    "titleAnimation": "transition.slideRightIn",
    "bodyAnimation": "transition.slideLeftIn",
    "backgroundColor": "#ffffff,#ffffff,#ffffff",
    "_spacing": "20px",
    "_pageLevelProgress": {
      "_isEnabled": true
    },
    "_items": [{
      "item_title": "",
      "body": "<table><tr><td width=25%><img src='course/en/images/04_powerful_targeting/core_audience.png'></td><td><b>LOOKALIKE AUDIENCES</b><br><br>Lookalike audiences are based on sophisticated modeling and identify people who share similar likes, interests, or characteristics as your current audience.<br><br>Lookalike audiences uses characteristics of your current audience, including website/app visitors (requires the Facebook pixel and/or Facebook SDK), Page fans, and Custom Audiences.</td></tr></table>"
    }]
  },
  {
    "_id": "c-320",
    "_parentId": "b-320",
    "_type": "component",
    "_component": "text",
    "_classes": "",
    "_layout": "full",
    "title": "Recommended courses",
    "displayTitle": "",
    "body": "<b>Recommended courses:</b><br><br><ul><li><i>Targeting: Core Audiences</i></li><li><i>Targeting: Custom Audiences</i></li><li><i>Targeting: Lookalike Audiences</i></li><li><i>Using Facebook Pixel to Measure, Optimize, and Build Audiences for Campaigns</i></li></ul>",
    "instruction": "",
    "_pageLevelProgress": {
      "_isEnabled": true
    }
  },
  {
    "_id": "c-330",
    "_parentId": "b-330",
    "_type": "component",
    "_component": "text",
    "_classes": "",
    "_layout": "full",
    "title": "Be where your customers are",
    "displayTitle": "Be where your customers are",
    "body": "The following story illustrates how people make buying decisions both for themselves and for their companies as they spend time on mobile and in Facebook and Instagram Feeds. You'll see how you can:<br><br><ul><li>Reach the right person in your target audience.</li><li>Remarket to people who have shown intent for your product or service.</li><li>Use lead ads as an efficient lead generation tactic.</li></ul>",
    "instruction": "",
    "_pageLevelProgress": {
      "_isEnabled": true
    }
  },
  {
    "_id": "c-340",
    "_parentId": "b-340",
    "_type": "component",
    "_component": "text",
    "_classes": "",
    "_layout": "left",
    "title": "Meet Jack",
    "displayTitle": "",
    "body": "<h2>Meet Jack</h2><br>Jack is a 33-year-old IT professional at CYBRSC, a cyber security company based in San Francisco.  Jack oversees the acquisition of all IT technology products and services for CYBRSC and relies on articles from tech sites he follows on Facebook to stay abreast of the latest trends. When he’s not researching cloud storage solutions or buying a new fleet of premium PCs, he reads up on wearables, the Internet of Things and all things PC gaming. When it comes to making purchases, he prefers to do research on his own, read product reviews, and get recommendations from his network of friends and professionals on Facebook.",
    "instruction": "",
    "_pageLevelProgress": {
      "_isEnabled": true
    }
  },
  {
    "_id": "c-341",
    "_parentId": "b-340",
    "_type": "component",
    "_component": "graphic",
    "_classes": "",
    "_layout": "right",
    "title": "",
    "displayTitle": "",
    "body": "",
    "instruction": "",
    "_graphic": {
      "alt": "alt text",
      "src": "course/en/images/04_powerful_targeting/jack.png"
    },
    "_pageLevelProgress": {
      "_isEnabled": false
    }
  },
  {
    "_id": "c-342",
    "_parentId": "b-340",
    "_type": "component",
    "_component": "text",
    "_classes": "",
    "_layout": "full",
    "title": "",
    "displayTitle": "",
    "body": "On his morning commute by train, Jack spends 30-40 minutes catching up on his Facebook and Instagram Feeds and skimming through tech-related articles. He’s been tasked with implementing a new video-conferencing system that’s more reliable and can support interactive white-boarding and polls for his company’s client-facing webinars. While scrolling through his News Feed, Jack sees a video ad from WebCon. He watches the video, clicks through to the site, starts to do some research and then has to get off the train to start the day.<br><br>Over lunch, Jack spends 15 minutes on his phone reading reviews of a new smart watch that he’s interested in buying. Later, he continues researching video-conferencing systems by going back to the WebCon site.<br><br>In the evening, while streaming “Silicon Valley,” Jack picks up his tablet and catches up on his News Feed to see what he missed from his friends and family during the day. He sees an ad for the smart watch he’s interested in and posts on Facebook to ask his friends what they think about it. He continues scrolling through his News Feed and sees a lead ad from WebCon, clicks on the “Learn More” button and finds a lead form with the majority of his information pre-populated for him. He fills in the remaining details and clicks the Submit button. “Hmm… that was easy. I’ll have a demo scheduled in a couple days. I can check that off my list and get back to my show.”",
    "instruction": "",
    "_pageLevelProgress": {
      "_isEnabled": false
    }
  },
  {
    "_id": "c-350",
    "_parentId": "b-350",
    "_type": "component",
    "_component": "text",
    "_classes": "",
    "_layout": "full",
    "title": "",
    "displayTitle": "",
    "body": "Now that you have a better idea of how business decision makers are spending time on their mobile devices and making purchase decisions, you can create campaigns designed around that experience. Next, let’s look at some Facebook solutions that can help you achieve your business objectives.",
    "instruction": "",
    "_pageLevelProgress": {
      "_isEnabled": false
    }
  },
  {
    "_id": "c-390",
    "_parentId": "b-390",
    "_type": "component",
    "_component": "co-jump",
    "_classes": "color-test",
    "_preLinkBody": "Next, we'll walk you through some ",
    "_linkBody": "Implementation Strategies",
    "_postLinkBody": ".",
    "_link": "#/id/co-250",
    "_graphic": "adapt/css/assets/icon_nextPage.png",
    "_pageLevelProgress": {
      "_isEnabled": false
    }
  },
  {
    "_id": "c-400",
    "_parentId": "b-400",
    "_type": "component",
    "_component": "text",
    "_classes": "",
    "_layout": "full",
    "title": "",
    "displayTitle": "",
    "body": "Facebook offers a variety of solutions to help you achieve your objectives throughout the marketing funnel.  Let's take a look at how you can make whitepapers, webinars, case studies, video, and lead generation work harder for you on Facebook.",
    "instruction": "",
    "_pageLevelProgress": {
      "_isEnabled": false
    }
  },
  {
    "_id": "c-411",
    "_parentId": "b-410",
    "_type": "component",
    "_component": "canvas-animation",
    "_classes": "",
    "_layout": "full",
    "title": "",
    "displayTitle": "",
    "animationName": "TestAnimation3",
    "animation": "course/en/animations/test/testAnimation3.js",
    "body": "<div id='TestAnimation3'></div>",
    "_resources": {
      "farleftImage": "course/en/images/05_development_distribution/whitepapers.png",
      "leftImage": "course/en/images/05_development_distribution/webinars.png",
      "centerImage": "course/en/images/05_development_distribution/case_studies.png",
      "rightImage": "course/en/images/05_development_distribution/videos.png",
      "farleftText": "Whitepapers",
      "leftText": "Webinars",
      "centerText": "Case Studies",
      "rightText": "Videos"
    },
    "instruction": "",
    "_pageLevelProgress": {
      "_isEnabled": false
    }
  },
  {
    "_id": "c-420",
    "_parentId": "b-420",
    "_type": "component",
    "_component": "text",
    "_classes": "",
    "_layout": "left",
    "title": "Expand with Canvas",
    "displayTitle": "Expand with Canvas",
    "body": "Bring whitepapers to life in an immersive mobile-only Canvas unit designed to capture attention, build awareness, and encourage interaction.",
    "instruction": "",
    "_pageLevelProgress": {
      "_isEnabled": true
    }
  },
  {
    "_id": "c-421",
    "_parentId": "b-420",
    "_type": "component",
    "_component": "graphic",
    "_classes": "",
    "_layout": "right",
    "title": "",
    "displayTitle": "",
    "body": "",
    "instruction": "",
    "_graphic": {
      "alt": "alt text",
      "src": "course/en/images/05_development_distribution/canvas_example.png"
    },
    "_pageLevelProgress": {
      "_isEnabled": false
    }
  },
  {
    "_id": "c-430",
    "_parentId": "b-430",
    "_type": "component",
    "_component": "text",
    "_classes": "",
    "_layout": "left",
    "title": "Live broadcast in Feed",
    "displayTitle": "Live broadcast in Feed",
    "body": "Connect with your customers and prospects with Facebook Live. Live is a way for people and businesses to broadcast to the world in real time from their desktop, mobile devices, or through our API. Consider sharing your webinars, product updates, key moments from your events, and interviews via Live.<br><br>Learn about Facebook Live in the <i>Connect and Engage With Your Audience Using Facebook Live</i> course.",
    "instruction": "",
    "_pageLevelProgress": {
      "_isEnabled": true
    }
  },
  {
    "_id": "c-431",
    "_parentId": "b-430",
    "_type": "component",
    "_component": "graphic",
    "_classes": "",
    "_layout": "right",
    "title": "",
    "displayTitle": "",
    "body": "",
    "instruction": "",
    "_graphic": {
      "alt": "alt text",
      "src": "course/en/images/05_development_distribution/live_example.png"
    },
    "_pageLevelProgress": {
      "_isEnabled": false
    }
  },
  {
    "_id": "c-440",
    "_parentId": "b-440",
    "_type": "component",
    "_component": "text",
    "_classes": "",
    "_layout": "left",
    "title": "Share with branded content",
    "displayTitle": "Share with branded content",
    "body": "Promote content featuring business partners, sponsors, or celebrities with branded content.  For example, you can share success stories featuring your business partners.  Be sure to tag your business partners in your branded content posts and make sure that your content adheres to <a href='https://www.facebook.com/business/news/branded-content-update' target='_blank'>policies</a>.<br><br>Learn more about branded content at <a href='https://www.facebook.com/business/help/788160621327601' target='_blank'>https://www.facebook.com/business/help/788160621327601</a>.",
    "instruction": "",
    "_pageLevelProgress": {
      "_isEnabled": true
    }
  },
  {
    "_id": "c-441",
    "_parentId": "b-440",
    "_type": "component",
    "_component": "graphic",
    "_classes": "",
    "_layout": "right",
    "title": "",
    "displayTitle": "",
    "body": "",
    "instruction": "",
    "_graphic": {
      "alt": "alt text",
      "src": "course/en/images/05_development_distribution/branded_content_example.png"
    },
    "_pageLevelProgress": {
      "_isEnabled": false
    }
  },
  {
    "_id": "c-450",
    "_parentId": "b-450",
    "_type": "component",
    "_component": "media",
    "_classes": "",
    "_layout": "full",
    "title": "Tell your brand's story with video",
    "displayTitle": "Tell your brand's story with video",
    "body": "Video ads can help you illustrate your value proposition in an engaging and digestible way.  The video ad format is also flexible enough to support any objective.",
    "instruction": "",
    "_setCompletionOn": "inview",
    "_useClosedCaptions": true,
    "_startLanguage": "en",
    "_media": {
      "width": "720",
      "height": "404",
      "mp4": "course/en/images/05_development_distribution/ces.mp4",
      "poster": "course/en/images/05_development_distribution/ces_poster.png"
    },
    "_playerOptions": {
      "poster": "",
      "showPosterWhenEnded": false,
      "defaultVideoWidth": 720,
      "defaultVideoHeight": 404,
      "videoWidth": -1,
      "videoHeight": -1,
      "defaultAudioWidth": 400,
      "defaultAudioHeight": 30,
      "defaultSeekBackwardInterval": "(media.duration * 0.05)",
      "defaultSeekForwardInterval": "(media.duration * 0.05)",
      "audioWidth": -1,
      "audioHeight": -1,
      "startVolume": 0.8,
      "loop": false,
      "autoPlay": true,
      "autoRewind": true,
      "enableAutosize": true,
      "alwaysShowHours": false,
      "showTimecodeFrameCount": false,
      "framesPerSecond": 25,
      "autosizeProgress": true,
      "alwaysShowControls": false,
      "hideVideoControlsOnLoad": false,
      "clickToPlayPause": true,
      "iPadUseNativeControls": false,
      "iPhoneUseNativeControls": false,
      "AndroidUseNativeControls": false,
      "features": ["playpause", "current", "progress", "duration", "tracks", "volume", "fullscreen"],
      "isVideo": true,
      "enableKeyboard": true,
      "pauseOtherPlayers": true,
      "startLanguage": "en",
      "tracksText": "mejs.i18n.t('Captions/Subtitles')",
      "hideCaptionsButtonWhenEmpty": true,
      "toggleCaptionsButtonWhenOnlyOne": false,
      "slidesSelector": ""
    },
    "_pageLevelProgress": {
      "_isEnabled": true
    }
  },
  {
    "_id": "c-460",
    "_parentId": "b-460",
    "_type": "component",
    "_component": "text",
    "_classes": "",
    "_layout": "left",
    "title": "Simplify lead generation",
    "displayTitle": "Simplify lead generation",
    "body": "Drive efficient lead generation on mobile with pre-populated and easy-to-edit forms.  After a person submits their information through a lead form, the data is immediately available for you to access. Our integrations and API make it easy for you to sync your leads directly with your customer system, whether that be a CRM, email service provider, or any other system you use to track your customers.<br><br>Learn more in our <i>Simplifying Lead Generation in a Cross-Device World</i> course.",
    "instruction": "",
    "_pageLevelProgress": {
      "_isEnabled": true
    }
  },
  {
    "_id": "c-461",
    "_parentId": "b-460",
    "_type": "component",
    "_component": "graphic",
    "_classes": "",
    "_layout": "right",
    "title": "",
    "displayTitle": "",
    "body": "",
    "instruction": "",
    "_graphic": {
      "alt": "alt text",
      "src": "course/en/images/05_development_distribution/leadads_example.gif"
    },
    "_pageLevelProgress": {
      "_isEnabled": false
    }
  },
  {
    "_id": "c-490",
    "_parentId": "b-490",
    "_type": "component",
    "_component": "co-jump",
    "_classes": "color-test",
    "_preLinkBody": "Next, let’s take a look at ",
    "_linkBody": "Measurement",
    "_postLinkBody": ".",
    "_link": "#/id/co-300",
    "_graphic": "adapt/css/assets/icon_nextPage.png",
    "_pageLevelProgress": {
      "_isEnabled": false
    }
  },
  {
    "_id": "c-500",
    "_parentId": "b-500",
    "_type": "component",
    "_component": "text",
    "_classes": "",
    "_layout": "full",
    "title": "Measurement solutions on and off Facebook",
    "displayTitle": "",
    "body": "Our measurement solutions provide clarity to help you determine if ads are driving value across your entire media spend, both on and off Facebook properties.",
    "instruction": "",
    "_pageLevelProgress": {
      "_isEnabled": true
    }
  },
  {
    "_id": "c-510",
    "_parentId": "b-510",
    "_type": "component",
    "_component": "graphic",
    "_classes": "",
    "_layout": "left",
    "title": "",
    "displayTitle": "",
    "body": "",
    "instruction": "",
    "_graphic": {
      "alt": "alt text",
      "src": "course/en/images/06_measurement_attribution/on_facebook.png"
    },
    "_pageLevelProgress": {
      "_isEnabled": false
    }
  },
  {
    "_id": "c-511",
    "_parentId": "b-510",
    "_type": "component",
    "_component": "text",
    "_classes": "",
    "_layout": "right",
    "title": "",
    "displayTitle": "",
    "body": "<br><br><b>On Facebook</b><br><br>Facebook’s solutions measure the performance of ads served on Facebook, Instagram, and Audience Network.",
    "instruction": "",
    "_pageLevelProgress": {
      "_isEnabled": false
    }
  },
  {
    "_id": "c-520",
    "_parentId": "b-520",
    "_type": "component",
    "_component": "text",
    "_classes": "",
    "_layout": "left",
    "title": "",
    "displayTitle": "",
    "body": "<br><br><b>On and Off Facebook</b><br><br>With our measurement partners, we also provide solutions that help you measure business outcomes both on and off Facebook. We do this:<br><br><ul><li>Across devices (mobile and desktop).</li><li>Across formats (image, video, display, and more).</li><li>Across publishers (in addition to Facebook, Instagram, and Audience Network).</li></ul>",
    "instruction": "",
    "_pageLevelProgress": {
      "_isEnabled": false
    }
  },
  {
    "_id": "c-521",
    "_parentId": "b-520",
    "_type": "component",
    "_component": "graphic",
    "_classes": "",
    "_layout": "right",
    "title": "",
    "displayTitle": "",
    "body": "",
    "instruction": "",
    "_graphic": {
      "alt": "alt text",
      "src": "course/en/images/06_measurement_attribution/on_off_facebook.png"
    },
    "_pageLevelProgress": {
      "_isEnabled": false
    }
  },
  {
    "_id": "c-530",
    "_parentId": "b-530",
    "_type": "component",
    "_component": "text",
    "_classes": "",
    "_layout": "full",
    "title": "",
    "displayTitle": "",
    "body": "Our people-based measurement tools provide clarity to help you understand the value your ads are driving both on and off Facebook properties.",
    "instruction": "",
    "_pageLevelProgress": {
      "_isEnabled": false
    }
  },
  {
    "_id": "c-540",
    "_parentId": "b-540",
    "_type": "component",
    "_component": "text",
    "_classes": "",
    "_layout": "full",
    "title": "Facebook measurement tools",
    "displayTitle": "Facebook measurement tools",
    "body": "Facebook measurement tools are centered around measuring three core business outcomes that matter to marketers: Audience, Brand, and Sales.",
    "instruction": "",
    "_pageLevelProgress": {
      "_isEnabled": true
    }
  },
  {
    "_id": "c-541",
    "_parentId": "b-540",
    "_type": "component",
    "_component": "canvas-animation",
    "_classes": "",
    "_layout": "full",
    "title": "",
    "displayTitle": "",
    "animationName": "TestAnimation",
    "animation": "course/en/animations/test/testAnimation.js",
    "body": "Imagine what you can do when you combine your ideas with Facebook’s people, insights, and data.<div id='TestAnimation'></div>",
    "_resources": {
      "textStyle_1": {
        "font": "bold 18px freight-sans-pro",
        "fill": "#000000",
        "wordWrap": true,
        "wordWrapWidth": 280,
        "align": "center",
        "lineSpacing": -10
      },
      "leftImage": "course/en/images/06_measurement_attribution/audience_outcomes.png",
      "centerImage": "course/en/images/06_measurement_attribution/brand_outcomes.png",
      "rightImage": "course/en/images/06_measurement_attribution/sales_outcomes.png",
      "leftText": "AUDIENCE OUTCOMES\nMeasure and optimize how you reach your audiences",
      "centerText": "BRAND OUTCOMES\nMeasure how your media spend impacts brand objectives",
      "rightText": "SALES OUTCOMES\nMeasure how your media spend impacts sales objectives"
    },
    "instruction": "",
    "_pageLevelProgress": {
      "_isEnabled": false
    }
  },
  {
    "_id": "c-542",
    "_parentId": "b-540",
    "_type": "component",
    "_component": "text",
    "_classes": "",
    "_layout": "full",
    "title": "",
    "displayTitle": "",
    "body": "These measurement solutions are designed to help you understand real business impact.",
    "instruction": "",
    "_pageLevelProgress": {
      "_isEnabled": false
    }
  },
  {
    "_id": "c-550",
    "_parentId": "b-550",
    "_type": "component",
    "_component": "text",
    "_classes": "",
    "_layout": "full",
    "title": "Measuring audience outcomes",
    "displayTitle": "",
    "body": "<h2>MEASURING AUDIENCE OUTCOMES</h2><br>We measure Audience Outcomes using the following solutions:<br><br><ul><li><b>Facebook ads reporting</b>:  Measure the value of your campaigns using Ads Manager, Power Editor, and Ads Insights API.  You can create and export ad reports to see your most important ad metrics and see how you're reaching your business goals.</li><li><b>Split Testing</b>: Split tests are A/B-like tests used to determine which strategy (e.g., link ads vs. lead ads) performs better in the auction. You can use this during early/pre-campaign testing, or always-on testing strategy, to determine how to best allocate your campaign budget.</li></ul><br>For example, if you created a Conversions – Website campaign and optimized for conversions, you could pull a report in Ads Manager or Power Editor to see how many times people converted after clicking on your ad.  Or, if you created a Lead Generation campaign and optimized for leads, you could see the number of people who filled out your form and submitted it.  You can also use the Ads Insights API to track leads.",
    "instruction": "",
    "_pageLevelProgress": {
      "_isEnabled": true
    }
  },
  {
    "_id": "c-560",
    "_parentId": "b-560",
    "_type": "component",
    "_component": "graphic",
    "_classes": "",
    "_layout": "full",
    "title": "Measuring brand outcomes",
    "displayTitle": "",
    "body": "<h2>MEASURING BRAND OUTCOMES</h2><br>We measure Brand Outcomes using the following solutions:<br><br><ul><li><b>Facebook ads reporting</b>: For measuring Brand Outcomes, you should focus on the metric Estimated Ad Recall Lift (people) (EARL) in ads reporting. EARL is the best prediction and estimate that we can currently make about how many people are likely to remember seeing an ad if they were asked within two days of seeing it.  Use this to compare the effectiveness of different creatives or target audiences.<br><br><cite><sup>*</sup>Please note that this metric is based on estimates. There are other factors such as creative quality and targeting that vary between campaigns.</cite></li></ul>",
    "instruction": "",
    "_graphic": {
      "alt": "alt text",
      "src": "course/en/images/06_measurement_attribution/measuring_brand_outcomes.png"
    },
    "_pageLevelProgress": {
      "_isEnabled": true
    }
  },
  {
    "_id": "c-561",
    "_parentId": "b-560",
    "_type": "component",
    "_component": "canvas-animation",
    "_classes": "",
    "_layout": "full",
    "_animateOn": "inview",
    "title": "analyze_lift",
    "displayTitle": "",
    "instruction": "",
    "animationName": "Analyze_Lift",
    "animation": "course/en/animations/analyze_lift/analyze_lift.js",
    "body": "<ul><li><b>Facebook Brand Lift</b>: Facebook Brand Lift helps you accurately measure the impact of your advertising on consumer attitudes towards your brand.<br><br>Before your campaign launches, we’ll randomize your target audience into exposed and control groups with similar characteristics. Between 4 and 48 hours after they see your ad, people in the exposed group will receive a poll, with questions pertaining to ad recall and other strategic brand objectives pertinent to your business, such as message association or purchase intent. By comparing poll results from people who saw your ads (exposed group) with people who didn’t see your ads (control group), you can measure the success of your campaign.</li><br><br><div id='Analyze_Lift'></div>",
    "_resources": {
      "style_1": {
        "font": "bold 18px freight-sans-pro",
        "fill": "#4267B2",
        "wordWrap": true,
        "wordWrapWidth": 200,
        "align": "center",
        "lineSpacing": -10
      },
      "style_2": {
        "font": "bold 15px freight-sans-pro",
        "fill": "#000000",
        "wordWrap": true,
        "wordWrapWidth": 150,
        "align": "center",
        "lineSpacing": -10
      },
      "placement": "course/en/animations/analyze_lift/placement.png",
      "people_green": "course/en/animations/analyze_lift/poll.png",
      "people_blue": "course/en/animations/analyze_lift/people_blue.png",
      "arrow": "course/en/animations/analyze_lift/arrow.png",
      "computer": "course/en/animations/analyze_lift/deliver.png",
      "lift": "course/en/animations/analyze_lift/lift.png",
      "title_1": "Randomize groups",
      "title_2": "Deliver ads",
      "title_3": "Deliver polls",
      "title_4": "Analyze lift",
      "subject_1": "Exposed",
      "subject_2": "Control",
      "subject_3": "Facebook ads (+other media)",
      "subject_4": "No Facebook ads (+other media)"
    },
    "_pageLevelProgress": {
      "_isEnabled": false
    }
  },
  {
    "_id": "c-570",
    "_parentId": "b-570",
    "_type": "component",
    "_component": "text",
    "_classes": "",
    "_layout": "full",
    "title": "Measuring sales outcomes",
    "displayTitle": "",
    "body": "<h2>MEASURING SALES OUTCOMES</h2><br><br>We measure Sales Outcomes using the following solutions:<br><br><ul><li><b>Facebook ads reporting:</b> Facebook ads reporting allows advertisers to see how many online and offline conversions resulted from your ads delivered across Facebook, Instagram, and Audience Network. A conversion occurs when a person takes an action that is valuable to your business. Examples of a conversion include people making a purchase on your website, installing your mobile app, or viewing a specific page of your website.<ul><li><b>Online Conversions</b>: Measure the actions people take online after people see or engage with your ads.</li><li><b>Offline Conversions</b>: Measure the number of transactions that occur in your physical retail store(s) and through other offline channels (Ex: by phone) after people see or engage with your ads.</li><li><b>Offline Conversions API</b>: Offline Conversions API provides businesses with a way to see how many people made offline purchases after seeing a Facebook campaign.  This is helpful if you want to tie a business purchase to a sales channel partner or a call center conversion, for example.</li></ul></li><li><b>Facebook Conversion Lift</b>: Conversion Lift enables advertisers to measure the true impact Facebook ads have on real people. Using Conversion Lift, advertisers can determine the additional business driven online, offline, or in their mobile app and attribute to people reached by Facebook ads across devices.</li></ul>",
    "instruction": "",
    "_pageLevelProgress": {
      "_isEnabled": true
    }
  },
  {
    "_id": "c-590",
    "_parentId": "b-590",
    "_type": "component",
    "_component": "text",
    "_classes": "",
    "_layout": "full",
    "title": "Recommended courses",
    "displayTitle": "",
    "body": "<b>Recommended courses:</b><br><br><ul><li><i>Getting Started With Facebook and Partner Measurement Solutions</i></li><li><i>Measure Campaign Performance With Ads Reporting</i></li><li><i>Understanding Multi-Touch Attribution</i></li><li><i>Using Facebook Pixel to Measure, Optimize, and Build Audiences for Campaigns</i></li></ul>",
    "instruction": "",
    "_pageLevelProgress": {
      "_isEnabled": true
    }
  },
  {
    "_id": "c-591",
    "_parentId": "b-590",
    "_type": "component",
    "_component": "co-jump",
    "_classes": "color-test",
    "_preLinkBody": "Let’s take a look at some ",
    "_linkBody": "Success Stories",
    "_postLinkBody": ".",
    "_link": "#/id/co-350",
    "_graphic": "adapt/css/assets/icon_nextPage.png",
    "_pageLevelProgress": {
      "_isEnabled": false
    }
  },
  {
    "_id": "c-600",
    "_parentId": "b-600",
    "_type": "component",
    "_component": "graphic",
    "_classes": "",
    "_layout": "full",
    "title": "Revel Systems",
    "displayTitle": "Revel Systems",
    "body": "",
    "instruction": "",
    "_graphic": {
      "alt": "alt text",
      "src": "course/en/images/07_success_stories/revel_systems_banner.png"
    },
    "_pageLevelProgress": {
      "_isEnabled": false
    }
  },
  {
    "_id": "c-601",
    "_parentId": "b-600",
    "_type": "component",
    "_component": "text",
    "_classes": "",
    "_layout": "full",
    "title": "Cisco WebEx",
    "displayTitle": "",
    "body": "Revel Systems combines cloud and mobile technology in its award-winning, iPad-based point-of-sale (POS) system for restaurants, retailers and enterprises. The Revel iPad POS System also offers integrated payroll, inventory tracking, customer relationship management and more. Revel Systems wanted to reach a large number of people with its campaign, with the ultimate goal of generating more customer leads for its POS system.  The company tested lead ads against link ads that sent people to a landing page and quickly determined that lead ads produced superior results.",
    "instruction": "",
    "_pageLevelProgress": {
      "_isEnabled": true
    }
  },
  {
    "_id": "c-602",
    "_parentId": "b-600",
    "_type": "component",
    "_component": "canvas-animation",
    "_classes": "",
    "_layout": "full",
    "title": "Cisco WebEx results",
    "displayTitle": "",
    "animationName": "ResultsAnimation",
    "animation": "course/en/animations/test/resultsAnimation.js",
    "body": "<b>The results:</b><br><div id='ResultsAnimation'></div>",
    "_resources": {
      "leftImage": "course/en/images/07_success_stories/revel_results1.png",
      "centerImage": "course/en/images/07_success_stories/revel_results2.png",
      "rightImage": "course/en/images/07_success_stories/revel_results3.png",
      "leftText": "LOWER COST PER LEAD",
      "centerText": "MORE LEADS",
      "rightText": "INCREASE IN LEAD RATE"
    },
    "instruction": "",
    "_pageLevelProgress": {
      "_isEnabled": false
    }
  },
  {
    "_id": "c-603",
    "_parentId": "b-600",
    "_type": "component",
    "_component": "text",
    "_classes": "",
    "_layout": "full",
    "title": "Cisco",
    "displayTitle": "",
    "body": "<cite>Source: <a href='https://www.facebook.com/business/success/revel-systems' target='_blank'>Facebook Success Stories: Revel Systems</a>, Aug 2016</cite>",
    "instruction": "",
    "_pageLevelProgress": {
      "_isEnabled": false
    }
  },
  {
    "_id": "c-620",
    "_parentId": "b-620",
    "_type": "component",
    "_component": "graphic",
    "_classes": "",
    "_layout": "full",
    "title": "Salesforce Pardot",
    "displayTitle": "Salesforce Pardot",
    "body": "",
    "instruction": "",
    "_graphic": {
      "alt": "alt text",
      "src": "course/en/images/07_success_stories/salesforce_pardot_banner.png"
    },
    "_pageLevelProgress": {
      "_isEnabled": false
    }
  },
  {
    "_id": "c-621",
    "_parentId": "b-620",
    "_type": "component",
    "_component": "text",
    "_classes": "",
    "_layout": "full",
    "title": "Salesforce Pardot",
    "displayTitle": "",
    "body": "Salesforce is the world’s number one customer relationship management (CRM) company. It provides cloud services for sales, service, marketing, community, analytics, apps, and the Internet of Things, including its B2B marketing automation solution, Pardot.  Salesforce wanted to  increase sales among its CRM customers by reaching the people who were most likely to buy the marketing automation tool and exclude existing Pardot customers from its target audience.  They achieved this with Facebook's advanced matching for Custom Audiences tool to target their specific audience on Facebook and Instagram.",
    "instruction": "",
    "_pageLevelProgress": {
      "_isEnabled": true
    }
  },
  {
    "_id": "c-622",
    "_parentId": "b-620",
    "_type": "component",
    "_component": "canvas-animation",
    "_classes": "",
    "_layout": "full",
    "title": "Salesforce Pardot results",
    "displayTitle": "",
    "animationName": "Results3Animation",
    "animation": "course/en/animations/test/results3Animation.js",
    "body": "<b>The results:</b><br><div id='Results3Animation'></div>",
    "_resources": {
      "leftImage": "course/en/images/07_success_stories/salesforce_results1.png",
      "centerImage": "course/en/images/07_success_stories/salesforce_results2.png",
      "rightImage": "course/en/images/07_success_stories/salesforce_results3.png",
      "leftText": "INCREASE IN CUSTOMER MATCH RATE",
      "centerText": "LOWER COST PER RESPONSE WITH LOOKALIKE AUDIENCES",
      "rightText": "INCREASE IN RETURN ON AD SPEND"
    },
    "instruction": "",
    "_pageLevelProgress": {
      "_isEnabled": false
    }
  },
  {
    "_id": "c-623",
    "_parentId": "b-620",
    "_type": "component",
    "_component": "text",
    "_classes": "",
    "_layout": "full",
    "title": "",
    "displayTitle": "",
    "body": "<cite>Source: <a href='https://www.facebook.com/business/success/salesforce-pardot' target='_blank'>Facebook Success Stories: Salesforce Pardot</a>, Aug 2016</cite>",
    "instruction": "",
    "_pageLevelProgress": {
      "_isEnabled": false
    }
  },
  {
    "_id": "c-630",
    "_parentId": "b-630",
    "_type": "component",
    "_component": "graphic",
    "_classes": "",
    "_layout": "full",
    "title": "TechSmith",
    "displayTitle": "TechSmith",
    "body": "",
    "instruction": "",
    "_graphic": {
      "alt": "alt text",
      "src": "course/en/images/07_success_stories/techsmith_banner.png"
    },
    "_pageLevelProgress": {
      "_isEnabled": false
    }
  },
  {
    "_id": "c-631",
    "_parentId": "b-630",
    "_type": "component",
    "_component": "text",
    "_classes": "",
    "_layout": "full",
    "title": "TechSmith",
    "displayTitle": "",
    "body": "TechSmith was looking to increase downloads of its free trials for Snagit and Camtasia, with the ultimate goal of boosting web sales.  To reach their goal, TechSmith used a Facebook pixel on its Snagit and Camtasia webpages to identify potential customers and retargeted them with video and carousel ads enticing them to download a free trial.  By retargeting ads to those who did not download the free trial, TechSmith increased trial downloads and overall software purchases.",
    "instruction": "",
    "_pageLevelProgress": {
      "_isEnabled": true
    }
  },
  {
    "_id": "c-632",
    "_parentId": "b-630",
    "_type": "component",
    "_component": "canvas-animation",
    "_classes": "",
    "_layout": "full",
    "title": "TechSmith results",
    "displayTitle": "",
    "animationName": "Results4Animation",
    "animation": "course/en/animations/test/results4Animation.js",
    "body": "<b>The results:</b><br><div id='Results4Animation'></div>",
    "_resources": {
      "leftImage": "course/en/images/07_success_stories/techsmith_results1.png",
      "centerImage": "course/en/images/07_success_stories/techsmith_results2.png",
      "rightImage": "course/en/images/07_success_stories/techsmith_results3_blank.png",
      "leftText": "INCREASE IN TRIAL DOWNLOADS AND PURCHASES",
      "centerText": "RETURN ON AD SPEND",
      "rightText": ""
    },
    "instruction": "",
    "_pageLevelProgress": {
      "_isEnabled": false
    }
  },
  {
    "_id": "c-633",
    "_parentId": "b-630",
    "_type": "component",
    "_component": "text",
    "_classes": "",
    "_layout": "full",
    "title": "",
    "displayTitle": "",
    "body": "<cite>Source: <a href='https://www.facebook.com/business/success/techsmith' target='_blank'>Facebook Success Stories: TechSmith</a>, Jul 2016</cite>",
    "instruction": "",
    "_pageLevelProgress": {
      "_isEnabled": false
    }
  },
  {
    "_id": "c-690",
    "_parentId": "b-690",
    "_type": "component",
    "_component": "co-jump",
    "_classes": "color-test",
    "_autoComplete": true,
    "_preLinkBody": "Click the button below to finish this course. Note: <a href='#'>click here</a> to verify that status bars for each module are complete.<br>",
    "_linkBody": "<div style = 'text-align:center;padding:8px;'><button class='buttons-action'><b>I'M FINISHED WITH THIS COURSE</b></button></div><br> ",
    "_postLinkBody": "",
    "_link": "",
    "_pageLevelProgress": {
      "_isEnabled": false
    }
  }


]
