{
    "_globals": {
        "_components": {
            "_accordion": {
                "ariaRegion": "This component is an accordion comprised of collapsible content panels containing display text. Select the item titles to toggle the visibility of these content panels.",
                "instruction": ""
            },
            "_gmcq": {
                "ariaRegion": "This component is a graphical multiple choice question. Once you have selected an option select the submit button below.",
                "instruction": ""
            },
            "_graphic": {
                "ariaRegion": "",
                "instruction": ""
            },
            "_hotgraphic": {
                "ariaRegion": "Below is a component which allows you to select hot spots over an image. Select a hot spot to trigger a popup that includes an image with display text. Select the close button to close the popup.",
                "ariaPoupupLabel": "Hotgraphic popup"
            },
            "_matching": {
                "ariaRegion": "This question component requires you to select the matching answer from a drop down list below. When you have selected your answers select the submit button.",
                "instruction": ""
            },
            "_mcq": {
                "ariaRegion": "This component is a multiple choice question. Once you have selected an option select the submit button below",
                "instruction": ""
            },
            "_media": {
                "ariaRegion": "This is a media component which plays a video. Select the play / pause button to watch or listen. Alternatively you can select the link below for the transcript.",
                "transcriptButton": "Alternatively you can select the link below for the transcript.",
                "instruction": ""
            },
            "_narrative": {
                "ariaRegion": "This component displays an image gallery with accompanying text. Use the next and back navigation controls to work through the narrative.",
                "instruction": ""
            },
            "_phaser": {
                "ariaRegion": ""
            },
            "_slider": {
                "ariaRegion": "This component requires you to answer the question by selecting the relevant value. After selecting a value select the submit button below.",
                "instruction": ""
            },
            "_textinput": {
                "ariaRegion": "This question component requires you to input your answer in the textbox provided. When you have answered the question select the submit button below."
            },
            "_mcq-truefalse": {
                "ariaRegion": "This component is a multiple choice question. Once you have selected an option select the submit button below"
            },
            "_blank": {
                "ariaRegion": "",
                "instruction": ""
            },
            "_hotGraphic": {
                "ariaRegion": "Below is a component which allows you to select hot spots over an image. Select a hot spot to trigger a popup that includes an image with display text. Select the close button to close the popup.",
                "instruction": ""
            },
            "_text": {
                "ariaRegion": "",
                "instruction": ""
            },
            "_textInput": {
                "ariaRegion": "This question component requires you to input your answer in the textbox provided. When you have answered the question select the submit button below.",
                "instruction": ""
            }
        },
        "_extensions": {
            "_pageLevelProgress": {
                "pageLevelProgress": "Page sections",
                "pageLevelProgressIndicatorBar": "Progress bar. Select here to view your current progress, and select an item to navigate to it. You have completed ",
                "pageLevelProgressEnd": "You have reached the end of the list of page sections.",
                "optionalContent": "Optional Content"
            }
        },
        "_menu": {
            "_boxmenu": {
                "ariaRegion": "Menu",
                "menuItem": "Menu item.",
                "menuEnd": "You have reached the end of the menu."
            }
        },
        "_accessibility": {
            "_accessibilityToggleTextOn": "Turn accessibility on?",
            "_accessibilityToggleTextOff": "Turn accessibility off?",
            "_accessibilityInstructions": {
                "touch": "Usage instructions. Use swipe left for next. Use swipe right for previous. Use a double tab to select. Use a two finger slide up to go to the top of the page.",
                "notouch": "Usage instructions. Use tab for next. Use shift tab for previous. Use enter to select. Use escape to go to the top of the page.",
                "ipad": "Usage instructions for touchscreens. Use swipe left for next. Use swipe right for previous. Use a double tab to select. Use a two finger slide up to go to the top of the page. Usage instructions for keyboard access. Use left for next. Use right for previous. Use up and down together to select."
            },
            "_ariaLabels": {
                "navigation": "Course navigation bar",
                "menuLoaded": "Menu Loaded.",
                "menu": "Menu",
                "page": "Page",
                "pageLoaded": "Page Loaded.",
                "pageEnd": "You have reached the end of the page.",
                "previous": "Back",
                "navigationBack": "Navigate back",
                "navigationDrawer": "Open course resources.",
                "close": "Close",
                "closeDrawer": "Close Drawer",
                "closeResources": "Close resources",
                "resourcesEnd": "You have reached the end of the list of resources.",
                "drawerBack": "Back to drawer",
                "drawer": "Top of side drawer",
                "closePopup": "Close popup",
                "next": "Next",
                "done": "Done",
                "complete": "Completed",
                "incomplete": "Incomplete",
                "incorrect": "Incorrect",
                "correct": "Correct",
                "locked": "Locked",
                "accessibilityToggleButton": "By selecting this button you can set whether accessibility is turned on or off",
                "feedbackPopUp": "Popup opened.",
                "menuBack": "Back to menu",
                "visited": "Visited"
            }
        }
    },
    "_id": "course",
    "_type": "course",
    "title": "Facebook for B2B Marketers",
    "displayTitle": "Facebook for B2B Marketers",
    "body": "",
    "_buttons": {
        "_submit": {
            "buttonText": "Submit",
            "ariaLabel": "Submit your answer by clicking here."
        },
        "_reset": {
            "buttonText": "Reset",
            "ariaLabel": "Reset the question by clicking here."
        },
        "_showCorrectAnswer": {
            "buttonText": "Correct answer",
            "ariaLabel": "Show the correct answer by clicking here."
        },
        "_hideCorrectAnswer": {
            "buttonText": "My answer",
            "ariaLabel": "Show the answer you gave by clicking here."
        },
        "_showFeedback": {
            "buttonText": "Show feedback",
            "ariaLabel": "View the question feedback again by clicking here."
        },
        "remainingAttemptsText": "attempts remaining",
        "remainingAttemptText": "final attempt",
        "disabledAriaLabel": "This button is disabled at the moment."
    },
    "_latestTrackingId": 40,
    "_pageLevelProgress": {
        "_isEnabled": true,
        "_altText": "of components completed on this page."
    },
    "_bookmarking": {
        "_isEnabled": true,
        "_level": "component",
        "title": "Bookmarking",
        "body": "Would you like to continue where you left off?",
        "_buttons": {
            "yes": "Yes",
            "no": "No"
        }
    },
    "_analytics": {
        "_isEnabled": true
    }
}